module codeberg.org/jasonrichardsmith/awsconsul

go 1.17

require (
	github.com/aws/aws-sdk-go v1.42.44
	github.com/hashicorp/consul/api v1.12.0
)

require (
	github.com/armon/go-metrics v0.0.0-20180917152333-f0300d1749da // indirect
	github.com/fatih/color v1.9.0 // indirect
	github.com/hashicorp/go-cleanhttp v0.5.1 // indirect
	github.com/hashicorp/go-hclog v0.12.0 // indirect
	github.com/hashicorp/go-immutable-radix v1.0.0 // indirect
	github.com/hashicorp/go-rootcerts v1.0.2 // indirect
	github.com/hashicorp/golang-lru v0.5.0 // indirect
	github.com/hashicorp/serf v0.9.6 // indirect
	github.com/jmespath/go-jmespath v0.4.0 // indirect
	github.com/mattn/go-colorable v0.1.6 // indirect
	github.com/mattn/go-isatty v0.0.12 // indirect
	github.com/mitchellh/go-homedir v1.1.0 // indirect
	github.com/mitchellh/mapstructure v1.1.2 // indirect
	golang.org/x/sys v0.0.0-20210423082822-04245dca01da // indirect
)
